<svg width="14" height="14" viewBox="0 0 14 14" fill="none" xmlns="http://www.w3.org/2000/svg">
<path d="M7 8.75C7.9665 8.75 8.75 7.9665 8.75 7C8.75 6.0335 7.9665 5.25 7 5.25C6.0335 5.25 5.25 6.0335 5.25 7C5.25 7.9665 6.0335 8.75 7 8.75Z" stroke="black" stroke-linecap="round" stroke-linejoin="round"/>
<path d="M11.3173 8.75065C11.2397 8.92659 11.2165 9.12176 11.2508 9.31099C11.2851 9.50022 11.3753 9.67484 11.5098 9.81232L11.5448 9.84732C11.6533 9.95567 11.7393 10.0843 11.7981 10.226C11.8568 10.3676 11.887 10.5194 11.887 10.6727C11.887 10.8261 11.8568 10.9779 11.7981 11.1195C11.7393 11.2611 11.6533 11.3898 11.5448 11.4982C11.4365 11.6066 11.3078 11.6927 11.1662 11.7514C11.0245 11.8101 10.8727 11.8403 10.7194 11.8403C10.5661 11.8403 10.4143 11.8101 10.2726 11.7514C10.131 11.6927 10.0023 11.6066 9.89398 11.4982L9.85898 11.4632C9.7215 11.3287 9.54689 11.2385 9.35766 11.2041C9.16843 11.1698 8.97326 11.193 8.79732 11.2707C8.62479 11.3446 8.47764 11.4674 8.374 11.6239C8.27035 11.7804 8.21473 11.9638 8.21398 12.1515V12.2507C8.21398 12.5601 8.09107 12.8568 7.87228 13.0756C7.65348 13.2944 7.35674 13.4173 7.04732 13.4173C6.7379 13.4173 6.44115 13.2944 6.22236 13.0756C6.00357 12.8568 5.88065 12.5601 5.88065 12.2507V12.1982C5.87613 12.0051 5.81364 11.8178 5.70128 11.6607C5.58893 11.5036 5.43191 11.384 5.25065 11.3173C5.07471 11.2397 4.87954 11.2165 4.69031 11.2508C4.50108 11.2851 4.32646 11.3753 4.18898 11.5098L4.15398 11.5448C4.04563 11.6533 3.91696 11.7393 3.77533 11.7981C3.6337 11.8568 3.48189 11.887 3.32857 11.887C3.17525 11.887 3.02343 11.8568 2.8818 11.7981C2.74017 11.7393 2.6115 11.6533 2.50315 11.5448C2.39468 11.4365 2.30863 11.3078 2.24991 11.1662C2.1912 11.0245 2.16098 10.8727 2.16098 10.7194C2.16098 10.5661 2.1912 10.4143 2.24991 10.2726C2.30863 10.131 2.39468 10.0023 2.50315 9.89398L2.53815 9.85898C2.67263 9.7215 2.76284 9.54689 2.79715 9.35766C2.83146 9.16843 2.8083 8.97326 2.73065 8.79732C2.65671 8.62479 2.53392 8.47764 2.37742 8.374C2.22092 8.27035 2.03753 8.21473 1.84982 8.21398H1.75065C1.44123 8.21398 1.14449 8.09107 0.925693 7.87228C0.706901 7.65348 0.583984 7.35674 0.583984 7.04732C0.583984 6.7379 0.706901 6.44115 0.925693 6.22236C1.14449 6.00357 1.44123 5.88065 1.75065 5.88065H1.80315C1.99623 5.87613 2.18349 5.81364 2.34058 5.70128C2.49766 5.58893 2.61732 5.43191 2.68398 5.25065C2.76163 5.07471 2.7848 4.87954 2.75049 4.69031C2.71618 4.50108 2.62596 4.32646 2.49148 4.18898L2.45648 4.15398C2.34801 4.04563 2.26196 3.91696 2.20325 3.77533C2.14454 3.6337 2.11432 3.48189 2.11432 3.32857C2.11432 3.17525 2.14454 3.02343 2.20325 2.8818C2.26196 2.74017 2.34801 2.6115 2.45648 2.50315C2.56484 2.39468 2.69351 2.30863 2.83514 2.24991C2.97677 2.1912 3.12858 2.16098 3.2819 2.16098C3.43522 2.16098 3.58703 2.1912 3.72866 2.24991C3.8703 2.30863 3.99897 2.39468 4.10732 2.50315L4.14232 2.53815C4.2798 2.67263 4.45441 2.76284 4.64364 2.79715C4.83287 2.83146 5.02804 2.8083 5.20398 2.73065H5.25065C5.42318 2.65671 5.57033 2.53392 5.67397 2.37742C5.77762 2.22092 5.83324 2.03753 5.83398 1.84982V1.75065C5.83398 1.44123 5.9569 1.14449 6.17569 0.925693C6.39449 0.706901 6.69123 0.583984 7.00065 0.583984C7.31007 0.583984 7.60682 0.706901 7.82561 0.925693C8.0444 1.14449 8.16732 1.44123 8.16732 1.75065V1.80315C8.16807 1.99086 8.22369 2.17425 8.32733 2.33076C8.43097 2.48726 8.57812 2.61004 8.75065 2.68398C8.92659 2.76163 9.12176 2.7848 9.31099 2.75049C9.50022 2.71618 9.67484 2.62596 9.81232 2.49148L9.84732 2.45648C9.95567 2.34801 10.0843 2.26196 10.226 2.20325C10.3676 2.14454 10.5194 2.11432 10.6727 2.11432C10.8261 2.11432 10.9779 2.14454 11.1195 2.20325C11.2611 2.26196 11.3898 2.34801 11.4982 2.45648C11.6066 2.56484 11.6927 2.69351 11.7514 2.83514C11.8101 2.97677 11.8403 3.12858 11.8403 3.2819C11.8403 3.43522 11.8101 3.58703 11.7514 3.72866C11.6927 3.8703 11.6066 3.99897 11.4982 4.10732L11.4632 4.14232C11.3287 4.2798 11.2385 4.45441 11.2041 4.64364C11.1698 4.83287 11.193 5.02804 11.2707 5.20398V5.25065C11.3446 5.42318 11.4674 5.57033 11.6239 5.67397C11.7804 5.77762 11.9638 5.83324 12.1515 5.83398H12.2507C12.5601 5.83398 12.8568 5.9569 13.0756 6.17569C13.2944 6.39449 13.4173 6.69123 13.4173 7.00065C13.4173 7.31007 13.2944 7.60682 13.0756 7.82561C12.8568 8.0444 12.5601 8.16732 12.2507 8.16732H12.1982C12.0104 8.16807 11.827 8.22369 11.6705 8.32733C11.514 8.43097 11.3913 8.57812 11.3173 8.75065V8.75065Z" stroke="black" stroke-linecap="round" stroke-linejoin="round"/>
</svg>
